{
    "test": {
        "bundle": 100,
        "end": 100,
        "load": 1.0,
        "rigid_ratio": 0.2,
        "tasks_per_job": {"min": 2, "max": 12},
        "w": {"min": 0.0001, "max": 0.01},
        "h": {"min": 0.01, "max": 0.3}
    }
}
